<svg width="200" height="89" viewBox="0 0 200 89" fill="none" xmlns="http://www.w3.org/2000/svg">
<path d="M126.768 38.3344V36.6659C124.88 36.6659 123.213 36.1097 121.991 34.9973C120.769 33.8849 120.102 32.5501 120.102 30.7703C120.102 28.8792 120.658 27.5444 121.88 26.5432C122.991 25.5421 124.658 24.9859 126.657 24.8746V23.651H129.99V24.8746C132.101 24.9859 133.657 25.4308 134.879 26.5432C136.101 27.5444 136.657 28.9905 136.657 30.7703C136.657 32.5501 135.99 33.8849 134.768 34.9973C133.546 36.1097 131.99 36.6659 129.99 36.6659V38.3344H126.768ZM126.768 33.7737V27.6556C125.657 27.7668 124.88 28.1006 124.435 28.5455C123.88 29.1017 123.658 29.7691 123.658 30.659C123.658 32.5501 124.658 33.5512 126.768 33.7737ZM130.213 33.7737C132.324 33.5512 133.324 32.5501 133.324 30.7703C133.324 29.8804 133.101 29.2129 132.546 28.6567C131.99 28.1006 131.213 27.7668 130.213 27.7668V33.7737ZM145.878 38.3344C143.656 38.3344 141.878 37.667 140.434 36.2209C138.99 34.8861 138.323 32.995 138.323 30.8815C138.323 28.6567 138.99 26.8769 140.434 25.5421C141.878 24.2072 143.656 23.5398 145.878 23.5398C148.1 23.5398 149.989 24.2072 151.322 25.5421C152.767 26.8769 153.433 28.6567 153.433 30.8815C153.433 33.1063 152.767 34.8861 151.322 36.2209C149.878 37.667 148.1 38.3344 145.878 38.3344ZM142.989 33.9962C143.767 34.7748 144.656 35.2198 145.878 35.2198C147.1 35.2198 147.989 34.7748 148.767 33.9962C149.545 33.2175 149.878 32.1051 149.878 30.8815C149.878 29.6579 149.545 28.6567 148.767 27.7668C147.989 26.9882 147.1 26.5432 145.878 26.5432C144.656 26.5432 143.767 26.9882 142.989 27.7668C142.212 28.5455 141.878 29.5466 141.878 30.8815C141.878 32.1051 142.212 33.2175 142.989 33.9962ZM155.766 38.0007V23.8735H159.099V29.2129H164.543V23.8735H167.877V37.8895H164.543V31.9939H159.099V37.8895H155.766V38.0007ZM169.654 40.8929V35.1085H170.876C172.098 33.5512 172.765 30.9927 172.765 27.5444V23.9847H183.431V35.1085H184.986V41.0042H181.987V38.0007H172.654V41.0042H169.654V40.8929ZM174.543 35.1085H179.987V26.8769H176.098V27.9893C176.098 31.104 175.543 33.44 174.543 35.1085Z" fill="#0071CE"/>
<path d="M120.436 48.5682V41.8939H126.213V48.5682H124.546V43.2288H121.991V48.5682H120.436ZM130.99 48.6794C129.99 48.6794 129.102 48.3457 128.435 47.6783C127.768 47.0108 127.435 46.1209 127.435 45.1198C127.435 44.0074 127.768 43.2288 128.435 42.5613C129.102 41.8939 129.99 41.5602 131.101 41.5602C132.212 41.5602 132.99 41.8939 133.768 42.5613C134.435 43.2288 134.768 44.0074 134.768 45.1198C134.768 46.1209 134.435 47.0108 133.768 47.6783C132.879 48.3457 131.99 48.6794 130.99 48.6794ZM129.546 46.6771C129.879 47.1221 130.324 47.2333 130.879 47.2333C131.435 47.2333 131.879 47.0108 132.212 46.6771C132.546 46.2322 132.768 45.7872 132.768 45.231C132.768 44.6748 132.546 44.1187 132.212 43.7849C131.879 43.4512 131.435 43.2288 130.879 43.2288C130.324 43.2288 129.879 43.4512 129.546 43.7849C129.213 44.1187 128.99 44.6748 128.99 45.231C128.99 45.7872 129.213 46.2322 129.546 46.6771ZM134.879 50.0143V47.2333H135.434C135.99 46.4547 136.323 45.231 136.323 43.6737V42.0051H141.434V47.3446H142.212V50.1255H140.767V48.6794H136.323V50.1255H134.879V50.0143ZM137.212 47.1221H139.767V43.2288H137.879V43.7849C137.99 45.231 137.656 46.4547 137.212 47.1221ZM142.656 50.0143V47.2333H143.212C143.767 46.4547 144.1 45.231 144.1 43.6737V42.0051H149.211V47.3446H149.989V50.1255H148.545V48.6794H144.1V50.1255H142.656V50.0143ZM144.989 47.1221H147.545V43.2288H145.656V43.7849C145.767 45.231 145.545 46.4547 144.989 47.1221ZM150.878 48.5682V41.8939H155.322V43.2288H152.433V44.4524H155.211V45.7872H152.433V47.1221H155.544V48.4569H150.878V48.5682ZM156.544 48.5682V41.8939H158.988C159.766 41.8939 160.433 42.0051 160.877 42.3388C161.321 42.6726 161.544 43.2288 161.544 43.8962C161.544 44.3411 161.433 44.7861 161.21 45.1198C160.988 45.4535 160.655 45.676 160.21 45.7872C159.877 45.8985 159.433 46.0097 158.877 46.0097H158.099V48.5682H156.544ZM158.211 44.7861H158.877C159.655 44.7861 159.988 44.5636 159.988 44.0074C159.988 43.4512 159.655 43.2288 158.877 43.2288H158.211V44.7861ZM161.544 48.5682L164.21 44.8973L161.655 41.8939H163.543L165.766 44.6748V41.8939H167.321V44.6748L169.543 41.8939H171.543L168.987 44.8973L171.765 48.5682H169.765L167.543 45.4535V48.5682H165.877V45.4535L163.543 48.5682H161.544ZM172.321 48.5682V41.8939H173.876V44.5636L176.32 41.8939H178.32L175.431 45.0086L178.431 48.5682H176.32L173.876 45.4535V48.5682H172.321ZM179.098 48.5682V41.8939H180.653V46.3434L183.209 41.8939H184.875V48.5682H183.32V44.2299L180.764 48.5682H179.098Z" fill="#0071CE"/>
<path d="M120.436 65.3652V58.246H122.102V62.918L124.88 58.246H126.657V65.3652H124.991V60.8044L122.213 65.3652H120.436ZM128.213 65.3652V58.246H129.99V60.9157H132.768V58.246H134.546V65.3652H132.768V62.3618H129.99V65.3652H128.213ZM135.99 65.3652V58.246H137.656V62.918L140.434 58.246H142.212V65.3652H140.545V60.8044L137.768 65.3652H135.99ZM149.211 66.9225V65.3652H143.767V58.246H145.545V63.9191H148.322V58.246H150.1V63.9191H150.878V66.9225H149.211ZM151.655 65.3652V58.246H153.322V62.918L156.1 58.246H157.877V65.3652H156.211V60.8044L153.433 65.3652H151.655ZM158.544 65.3652L161.544 58.246H163.21L166.21 65.3652H164.321L163.766 63.9191H160.988L160.433 65.3652H158.544ZM161.433 62.5843H163.21L162.321 60.137L161.433 62.5843ZM167.543 65.3652V59.6921H165.543V58.246H171.321V59.6921H169.321V65.3652H167.543ZM172.098 65.3652V58.246H173.765V62.918L176.542 58.246H178.32V65.3652H176.654V60.8044L173.876 65.3652H172.098ZM179.876 65.3652V58.246H182.764C183.098 58.246 183.32 58.246 183.653 58.3572C183.875 58.4685 184.209 58.4684 184.431 58.6909C184.653 58.8022 184.875 59.0246 184.986 59.2471C185.097 59.4696 185.209 59.8033 185.209 60.137C185.209 60.4707 185.097 60.8044 184.875 61.1382C184.653 61.3606 184.431 61.5831 183.986 61.6944C184.431 61.8056 184.764 61.9168 184.986 62.2505C185.209 62.5843 185.431 62.918 185.431 63.3629C185.431 63.6966 185.32 64.0303 185.209 64.3641C185.097 64.6978 184.875 64.809 184.542 65.0315C184.32 65.1427 183.986 65.254 183.653 65.3652C183.32 65.4764 182.986 65.4764 182.653 65.4764H179.876V65.3652ZM181.542 64.0303H182.542C183.32 64.0303 183.764 63.6966 183.764 63.1404C183.764 62.5843 183.32 62.3618 182.542 62.3618H181.542V64.0303ZM181.542 61.1382H182.431C182.764 61.1382 182.986 61.0269 183.209 60.9157C183.431 60.8044 183.431 60.582 183.431 60.3595C183.431 59.9145 183.098 59.6921 182.32 59.6921H181.431V61.1382H181.542Z" fill="#0071CE"/>
<path d="M59.6621 32.1052H56.8846L56.4402 34.8862H58.7733V37.7783H55.9958L55.1069 43.3402H51.996L52.7738 37.7783H50.5517L49.774 43.3402H46.6631L47.4408 37.7783H45.1077V34.8862H47.8852L48.3297 32.1052H45.9965V29.213H48.7741L49.5518 23.6511H52.6627L51.8849 29.213H54.107L54.8847 23.6511H57.9956L57.2179 29.213H59.551V32.1052H59.6621ZM53.8848 32.1052H51.6627L51.3294 34.8862H53.5515L53.8848 32.1052Z" fill="#0071CE"/>
<path d="M62.9954 43.3402V23.5398H69.7726L74.2168 36.2209H74.3279L78.6609 23.5398H85.5492V43.3402H80.8829L80.994 29.3242H80.8829L75.7722 43.3402H72.4391L67.4395 29.3242H67.3284L67.4395 43.3402H62.9954ZM89.66 43.3402V23.5398H94.4375V30.7703H96.9928C99.2149 30.7703 101.104 31.3265 102.548 32.3276C103.992 33.3287 104.659 34.8861 104.659 36.9996C104.659 39.1131 103.881 40.6704 102.437 41.6716C100.993 42.6727 99.1038 43.2289 96.9928 43.2289H89.66V43.3402ZM94.4375 39.5581H96.5484C98.7705 39.5581 99.8815 38.6682 99.8815 36.9996C99.8815 35.331 98.7705 34.5524 96.5484 34.5524H94.4375V39.5581ZM106.881 43.3402V23.5398H111.658V43.3402H106.881Z" fill="#0071CE"/>
<path d="M0 65.3652V45.5649H7.8883C8.77713 45.5649 9.55485 45.6761 10.2215 45.7874C10.9992 45.8986 11.6658 46.2323 12.3324 46.566C12.999 46.8997 13.5545 47.4559 13.999 48.1234C14.4434 48.7908 14.5545 49.6807 14.5545 50.5706C14.5545 51.683 14.2212 52.5729 13.6657 53.2403C13.1101 54.019 12.3324 54.4639 11.3325 54.7976V54.9089C12.5546 55.1314 13.4434 55.5763 14.2212 56.4662C14.9989 57.2449 15.3322 58.3573 15.3322 59.5809C15.3322 60.582 15.11 61.4719 14.6656 62.2506C14.2212 63.0293 13.6657 63.5854 12.8879 64.0304C12.1102 64.4753 11.3325 64.8091 10.4437 65.0315C9.55484 65.254 8.66602 65.3652 7.6661 65.3652H0ZM4.55522 61.4719H7.22169C9.44374 61.4719 10.5548 60.6932 10.5548 59.1359C10.5548 57.6898 9.44374 56.9112 7.22169 56.9112H4.55522V61.4719ZM4.55522 53.4628H7.11058C7.99941 53.4628 8.66602 53.2403 9.22154 52.9066C9.66595 52.5729 9.99926 52.0167 9.99926 51.3493C9.99926 50.0144 8.99933 49.4582 6.99948 49.4582H4.66632V53.4628H4.55522ZM18.5542 65.3652V45.5649H25.3314L29.7756 58.246H29.8867L34.2197 45.5649H41.1081V65.3652H36.4417L36.5528 51.3493H36.4417L31.331 65.3652H27.9979L22.9983 51.3493H22.8872L22.9983 65.3652H18.5542ZM45.2189 65.3652V45.5649H58.4401V49.5695H49.7741V53.2403H57.9957V57.0224H49.7741V61.1382H58.9956V65.254H45.2189V65.3652ZM71.7724 65.8102C68.6616 65.8102 66.2173 64.8091 64.1063 62.918C62.1065 61.027 61.1066 58.4685 61.1066 55.3538C61.1066 52.2392 62.1065 49.7919 64.1063 47.7897C66.1062 45.8986 68.6616 44.8975 71.7724 44.8975C73.2168 44.8975 74.55 45.1199 75.9944 45.6761C77.3276 46.2323 78.4386 46.8997 79.2163 47.7897L75.9944 51.0155C75.5499 50.4594 74.9944 50.0144 74.3278 49.6807C73.6612 49.347 72.8835 49.2357 72.1058 49.2357C70.4392 49.2357 69.106 49.7919 67.9949 50.9043C66.8839 52.0167 66.4395 53.4628 66.4395 55.2426C66.4395 57.0224 66.995 58.4685 67.9949 59.5809C68.9949 60.6933 70.4392 61.2494 71.9947 61.2494C73.8834 61.2494 75.2166 60.582 76.2166 59.2472L79.5496 62.3618C77.5498 64.8091 74.9944 65.8102 71.7724 65.8102ZM85.7714 65.3652V49.6807H80.2163V45.5649H96.104V49.6807H90.5488V65.3652H85.7714ZM98.2149 65.3652V45.5649H111.436V49.5695H102.77V53.2403H110.992V57.0224H102.77V61.1382H111.992V65.254H98.2149V65.3652Z" fill="#0071CE"/>
<path fill-rule="evenodd" clip-rule="evenodd" d="M122.769 73.0406C142.434 87.3903 166.543 89.6151 184.875 71.817C221.761 35.9984 169.765 -26.0724 118.88 14.307C174.098 -31.8568 231.205 45.4536 180.098 80.2711C159.655 94.1758 138.434 90.2825 119.325 76.934C118.214 75.9328 118.102 74.2643 119.102 73.1519C119.991 72.262 121.658 72.1507 122.769 73.0406Z" fill="#E53412"/>
<path d="M125.546 52.5728L124.102 52.7953C124.102 52.4616 123.991 52.3504 123.769 52.1279C123.546 52.0166 123.435 51.9054 123.102 51.9054C122.769 51.9054 122.435 52.0166 122.213 52.2391C121.991 52.4616 121.88 52.9066 121.88 53.4627C121.88 54.1302 121.991 54.5751 122.213 54.7976C122.435 55.0201 122.769 55.2425 123.102 55.2425C123.324 55.2425 123.546 55.1313 123.769 55.0201C123.991 54.9088 124.102 54.5751 124.102 54.2414L125.546 54.4639C125.435 55.1313 125.102 55.5763 124.657 55.91C124.213 56.2437 123.658 56.3549 122.991 56.3549C122.213 56.3549 121.547 56.1325 121.102 55.5763C120.658 55.0201 120.436 54.3526 120.436 53.4627C120.436 52.5728 120.658 51.9054 121.102 51.3492C121.547 50.793 122.213 50.5706 122.991 50.5706C123.658 50.5706 124.213 50.6818 124.546 51.0155C125.102 51.5717 125.324 52.0166 125.546 52.5728ZM126.324 53.6852C126.324 53.2403 126.435 52.7953 126.657 52.2391C126.88 51.7942 127.213 51.4605 127.657 51.238C128.102 51.0155 128.546 50.9043 129.102 50.9043C129.879 50.9043 130.546 51.1267 131.101 51.6829C131.657 52.2391 131.879 52.9066 131.879 53.6852C131.879 54.4639 131.657 55.2425 131.101 55.6875C130.546 56.2437 129.879 56.4662 129.102 56.4662C128.657 56.4662 128.102 56.3549 127.657 56.1325C127.213 55.91 126.88 55.5763 126.657 55.1313C126.435 54.7976 126.324 54.2414 126.324 53.6852ZM127.768 53.6852C127.768 54.2414 127.879 54.6864 128.102 54.9088C128.324 55.2425 128.657 55.3538 129.102 55.3538C129.435 55.3538 129.768 55.2425 129.99 54.9088C130.213 54.5751 130.324 54.2414 130.324 53.6852C130.324 53.129 130.213 52.7953 129.99 52.4616C129.768 52.1279 129.435 52.0166 129.102 52.0166C128.768 52.0166 128.435 52.1279 128.102 52.4616C127.879 52.7953 127.768 53.129 127.768 53.6852ZM132.99 51.0155H134.435V55.3538H136.545V51.0155H137.99V55.3538H138.545V57.9123H137.434V56.4662H133.101V51.0155H132.99ZM139.434 51.0155H140.767V54.4639L142.989 51.0155H144.434V56.4662H143.101V53.0178L140.878 56.4662H139.434V51.0155ZM146.989 52.6841L145.656 52.4616C145.767 51.9054 146.1 51.5717 146.434 51.238C146.767 51.0155 147.322 50.9043 147.989 50.9043C148.656 50.9043 149.1 51.0155 149.433 51.1267C149.767 51.238 149.989 51.4605 150.1 51.6829C150.211 51.9054 150.322 52.3504 150.322 53.0178V54.6864C150.322 55.1313 150.322 55.465 150.433 55.7987C150.433 56.0212 150.544 56.2437 150.656 56.5774H149.211C149.211 56.4662 149.1 56.3549 149.1 56.1325C149.1 56.0212 149.1 56.0212 149.1 55.91C148.878 56.1325 148.545 56.3549 148.322 56.4662C147.989 56.5774 147.767 56.6886 147.434 56.6886C146.878 56.6886 146.434 56.5774 146.1 56.2437C145.767 55.91 145.656 55.5763 145.656 55.1313C145.656 54.7976 145.767 54.5751 145.878 54.3526C145.989 54.1302 146.211 53.9077 146.545 53.7965C146.767 53.6852 147.211 53.574 147.656 53.4627C148.322 53.3515 148.767 53.2403 149.1 53.129V53.0178C149.1 52.6841 148.989 52.5728 148.878 52.4616C148.767 52.3504 148.433 52.2391 148.1 52.2391C147.878 52.2391 147.656 52.2391 147.545 52.3504C147.211 52.2391 147.1 52.4616 146.989 52.6841ZM148.878 53.7965C148.656 53.9077 148.433 53.9077 147.989 54.0189C147.545 54.1302 147.322 54.2414 147.211 54.2414C146.989 54.3526 146.878 54.5751 146.878 54.7976C146.878 55.0201 146.989 55.1313 147.1 55.3538C147.211 55.465 147.434 55.5763 147.656 55.5763C147.878 55.5763 148.211 55.465 148.433 55.3538C148.656 55.2425 148.767 55.0201 148.767 54.9088C148.767 54.7976 148.878 54.5751 148.878 54.2414V53.7965ZM152.1 51.0155H156.877V56.4662H155.433V52.1279H153.433V54.5751C153.433 55.2425 153.322 55.6875 153.211 55.91C153.1 56.1325 152.878 56.3549 152.766 56.3549C152.544 56.4662 152.322 56.4662 151.878 56.4662C151.655 56.4662 151.322 56.4662 150.989 56.3549V55.2425C150.989 55.2425 151.1 55.2425 151.211 55.2425C151.322 55.2425 151.433 55.2425 151.544 55.2425C151.767 55.2425 151.878 55.1313 151.878 55.0201C151.878 54.9088 151.989 54.5751 151.989 53.9077V51.0155H152.1ZM158.433 51.0155H159.877V53.2403H161.321C161.877 53.2403 162.321 53.2403 162.655 53.3515C162.988 53.4627 163.21 53.574 163.432 53.9077C163.655 54.1302 163.766 54.4639 163.766 54.7976C163.766 55.3538 163.543 55.6875 163.21 56.0212C162.877 56.2437 162.321 56.4662 161.544 56.4662H158.433V51.0155ZM159.877 55.465H161.21C161.655 55.465 161.877 55.3538 161.988 55.2425C162.099 55.1313 162.21 54.9088 162.21 54.7976C162.21 54.5751 162.099 54.3526 161.877 54.2414C161.655 54.1302 161.321 54.1302 160.766 54.1302H159.877V55.465ZM164.766 51.0155H166.21V53.0178H168.321V51.0155H169.765V56.4662H168.321V54.1302H166.21V56.4662H164.766V51.0155ZM171.21 51.0155H172.654V53.2403H174.098C174.654 53.2403 175.098 53.2403 175.431 53.3515C175.765 53.4627 175.987 53.574 176.209 53.9077C176.431 54.1302 176.542 54.4639 176.542 54.9088C176.542 55.465 176.32 55.7987 175.987 56.1325C175.654 56.3549 175.098 56.5774 174.32 56.5774H171.21V51.0155ZM172.654 55.465H173.987C174.32 55.465 174.543 55.465 174.765 55.3538C174.876 55.2425 174.987 55.0201 174.987 54.7976C174.987 54.5751 174.876 54.3526 174.654 54.2414C174.432 54.1302 174.098 54.1302 173.543 54.1302H172.654V55.465ZM177.32 51.0155H178.765V56.4662H177.32V51.0155ZM179.431 56.4662L181.431 53.6852L179.542 51.0155H181.32L182.32 52.4616L183.32 51.0155H184.986L183.098 53.574L185.097 56.4662H183.32L182.209 54.7976L181.098 56.4662H179.431Z" fill="#0071CE"/>
</svg>
