<svg width="32" height="32" viewBox="0 0 32 32" fill="none" xmlns="http://www.w3.org/2000/svg">
<path d="M32 16.0975C32 7.20616 24.8375 0 16 0C7.16253 0 0 7.20616 0 16.0975C0 24.1336 5.85 30.7927 13.5 32V20.7506H9.43747V16.0975H13.5V12.551C13.5 8.51716 15.8875 6.28807 19.5437 6.28807C21.2937 6.28807 23.125 6.60247 23.125 6.60247V10.564H21.1063C19.1187 10.564 18.5 11.8059 18.5 13.0792V16.0975H22.9375L22.2281 20.7506H18.5V32C26.15 30.7927 32 24.1336 32 16.0975Z" fill="white"/>
</svg>
